[
  {
    "relation": ["delegate_permission/common.handle_all_urls"],
    "target": {
      "namespace": "android_app",
      "package_name": "com.silverware",
      "sha256_cert_fingerprints": ["lol"]
    }
  }
]
